…
A tibble with intensities of technical replicates collapsed.

## Examples

``` r
# uses a slightly modified version of toy_metaboscape_metadata
collapse_toy_metaboscape_metadata <- toy_metaboscape_metadata
collapse_toy_metaboscape_metadata$Replicate <- 1

toy_metaboscape %>%
  join_metadata(collapse_toy_metaboscape_metadata) %>%
  impute_lod() %>%
  collapse_max(group_column = Group, replicate_column = Replicate)
#> # A tibble: 40 × 7
#>      UID Feature              Sample      Intensity Group     Replicate Batch
#>    <int> <chr>                <chr>           <dbl> <chr>         <dbl> <int>
#>  1     1 161.10519 Da 26.98 s QC_1              7   QC                1     1
#>  2     1 161.10519 Da 26.98 s blank_1           0.6 blank             1     1
#>  3     1 161.10519 Da 26.98 s control_1         4   control           1     1
#>  4     1 161.10519 Da 26.98 s treatment_1       9   treatment         1     1
#>  5     2 276.13647 Da 27.28 s QC_1              9   QC                1     1
#>  6     2 276.13647 Da 27.28 s blank_1           9   blank             1     1
#>  7     2 276.13647 Da 27.28 s control_1         6   control           1     1
#>  8     2 276.13647 Da 27.28 s treatment_1       4   treatment         1     1
#>  9     3 304.24023 Da 32.86 s QC_1              6   QC                1     1
#> 10     3 304.24023 Da 32.86 s blank_1           0.2 blank             1     1
#> # ℹ 30 more rows
```
