metamorphr • metamorphr
…
Collapse technical replicates

In the example data set, the same sample was injected 3 times. Prior
to doing statistics and drawing the volcano plot, those technical
replicates should be collapsed. The metamorphr package provides several
approaches to do this. Start typing metamorphr::collapse_
into the R console to see the available options. For this workflow, we
will simply calculate the mean of the technical replicates using
collapse_mean. It is important that sample metadata are
provided for this approach.

mevastatin_metadata
#> # A tibble: 73 × 5
#>    Sample                    Group      Replicate Batch Factor
#>    <chr>                     <chr>          <dbl> <dbl>  <dbl>
#>  1 B9_Comp_1_08-Aug-24_10235 mevastatin         1     1      1
#>  2 B9_Comp_1_10-Aug-24_10378 mevastatin         1     1      1
#>  3 B9_Comp_1_11-Aug-24_10517 mevastatin         1     1      1
#>  4 B9_Comp_2_08-Aug-24_10236 mevastatin         2     1      1
#>  5 B9_Comp_2_10-Aug-24_10379 mevastatin         2     1      1
#>  6 B9_Comp_2_12-Aug-24_10522 mevastatin         2     1      1
#>  7 B9_Comp_3_08-Aug-24_10237 mevastatin         3     1      1
#>  8 B9_Comp_3_10-Aug-24_10380 mevastatin         3     1      1
#>  9 B9_Comp_3_12-Aug-24_10523 mevastatin         3     1      1
#> 10 B9_Comp_4_08-Aug-24_10238 mevastatin         4     1      1
#> # ℹ 63 more rows
…
